{
    "site_id": "MLA",
    "query": "foo bar sarlanga marta",
    "paging": {
        "total": 0,
        "offset": 0,
        "limit": 50
    },
    "results": [],
    "secondary_results": [],
    "related_results": [],
    "sort": {
        "id": "relevance",
        "name": "More relevant"
    },
    "available_sorts": [
        {
            "id": "price_asc",
            "name": "Lower price"
        },
        {
            "id": "price_desc",
            "name": "Higher price"
        }
    ],
    "filters": [],
    "available_filters": []
}
